{
  "couchdb": {
    "databases": {
      "feedback": "xminutes-user-feedback", 
      "import": "import-items", 
      "playout": "items", 
      "users": "xminutes-users"
    }
  }, 
  "mode": "headmaster of disaster branch",
  "loglevel": "master----debug", 
  "logstash": true, 
  "matching_content_context": {
    "server": {
      "port": 3000
    }
  }, 
  "public_playout_api": {
    "server": {
      "host": "0.0.0.0", 
      "port": 7788, 
      "protocol": "http://"
    }
  }, 
  "recoveryTime": 30000
}
